Lab14/simulation/qsim/D_FlipFlop.msim.vcd
$comment
	File created using the following command:
		vcd file D_FlipFlop.msim.vcd -direction
$end
$date
	Thu Apr 25 09:41:52 2019
$end
$version
	ModelSim Version 10.5b
$end
$timescale
	1ps
$end

$scope module D_FlipFlop_vlg_vec_tst $end
$var reg 1 ! CLOCK2_50 $end
$var reg 1 " CLOCK3_50 $end
$var reg 1 # treg_CLOCK4_50 $end
$var reg 1 $ CLOCK_50 $end
$var reg 2 % KEY [1:0] $end
$var reg 10 & SW [9:0] $end
$var wire 1 ' CLOCK4_50 $end
$var wire 1 ( LEDR [9] $end
$var wire 1 ) LEDR [8] $end
$var wire 1 * LEDR [7] $end
$var wire 1 + LEDR [6] $end
$var wire 1 , LEDR [5] $end
$var wire 1 - LEDR [4] $end
$var wire 1 . LEDR [3] $end
$var wire 1 / LEDR [2] $end
$var wire 1 0 LEDR [1] $end
$var wire 1 1 LEDR [0] $end

$scope module i1 $end
$var wire 1 2 gnd $end
$var wire 1 3 vcc $end
$var wire 1 4 unknown $end
$var tri1 1 5 devclrn $end
$var tri1 1 6 devpor $end
$var tri1 1 7 devoe $end
$var wire 1 8 CLOCK_50~input_o $end
$var wire 1 9 CLOCK2_50~input_o $end
$var wire 1 : CLOCK3_50~input_o $end
$var wire 1 ; SW[1]~input_o $end
$var wire 1 < SW[2]~input_o $end
$var wire 1 = SW[3]~input_o $end
$var wire 1 > SW[4]~input_o $end
$var wire 1 ? SW[5]~input_o $end
$var wire 1 @ SW[6]~input_o $end
$var wire 1 A SW[7]~input_o $end
$var wire 1 B SW[8]~input_o $end
$var wire 1 C SW[9]~input_o $end
$var wire 1 D KEY[1]~input_o $end
$var wire 1 E CLOCK4_50~input_o $end
$var wire 1 F ~QUARTUS_CREATED_GND~I_combout $end
$var wire 1 G KEY[0]~input_o $end
$var wire 1 H KEY[0]~inputCLKENA0_outclk $end
$var wire 1 I SW[0]~input_o $end
$var wire 1 J comb_10|Q~q $end
$var wire 1 K comb_9|Q~feeder_combout $end
$var wire 1 L comb_9|Q~q $end
$var wire 1 M comb_8|Q~combout $end
$upscope $end
$upscope $end
$enddefinitions $end
#0
$dumpvars
x!
x"
x#
x$
bx1 %
bx0 &
x'
01
00
x/
0.
0-
0,
0+
0*
0)
0(
02
13
x4
15
16
17
x8
x9
x:
x;
x<
x=
x>
x?
x@
xA
xB
xC
xD
xE
0F
1G
1H
0I
0J
0K
0L
xM
$end
#40000
bx1 &
1I
1K
#50000
bx0 %
0G
0H
1(
1M
1/
1L
10
#60000
bx0 &
0I
0M
0K
0/
#70000
bx1 &
1I
1M
1K
1/
#90000
bx0 &
0I
0M
0K
0/
#100000
bx1 %
1G
1H
0(
#110000
bx1 &
1I
1K
#120000
bx0 &
0I
0K
#130000
bx1 &
1I
1K
#140000
bx0 &
0I
0K
#150000
bx0 %
0G
0H
1(
0L
00
#160000
bx1 &
1I
1M
1K
1/
#170000
bx0 &
0I
0M
0K
0/
#180000
bx1 &
1I
1M
1K
1/
#200000
bx1 %
1G
1H
0(
1J
11
#210000
bx0 &
0I
0K
