Lab14/simulation/qsim/D_FlipFlop.msim.vcd
$comment
	File created using the following command:
		vcd file D_FlipFlop.msim.vcd -direction
$end
$date
	Tue Apr 23 10:54:19 2019
$end
$version
	ModelSim Version 10.5b
$end
$timescale
	1ps
$end

$scope module D_FlipFlop_vlg_vec_tst $end
$var reg 1 ! CLOCK2_50 $end
$var reg 1 " CLOCK3_50 $end
$var reg 1 # treg_CLOCK4_50 $end
$var reg 1 $ CLOCK_50 $end
$var reg 10 % SW [9:0] $end
$var wire 1 & CLOCK4_50 $end
$var wire 1 ' LEDR [9] $end
$var wire 1 ( LEDR [8] $end
$var wire 1 ) LEDR [7] $end
$var wire 1 * LEDR [6] $end
$var wire 1 + LEDR [5] $end
$var wire 1 , LEDR [4] $end
$var wire 1 - LEDR [3] $end
$var wire 1 . LEDR [2] $end
$var wire 1 / LEDR [1] $end
$var wire 1 0 LEDR [0] $end

$scope module i1 $end
$var wire 1 1 gnd $end
$var wire 1 2 vcc $end
$var wire 1 3 unknown $end
$var tri1 1 4 devclrn $end
$var tri1 1 5 devpor $end
$var tri1 1 6 devoe $end
$var wire 1 7 CLOCK_50~input_o $end
$var wire 1 8 CLOCK2_50~input_o $end
$var wire 1 9 CLOCK3_50~input_o $end
$var wire 1 : SW[2]~input_o $end
$var wire 1 ; SW[3]~input_o $end
$var wire 1 < SW[4]~input_o $end
$var wire 1 = SW[5]~input_o $end
$var wire 1 > SW[6]~input_o $end
$var wire 1 ? SW[7]~input_o $end
$var wire 1 @ SW[8]~input_o $end
$var wire 1 A SW[9]~input_o $end
$var wire 1 B CLOCK4_50~input_o $end
$var wire 1 C ~QUARTUS_CREATED_GND~I_combout $end
$var wire 1 D SW[1]~input_o $end
$var wire 1 E SW[1]~inputCLKENA0_outclk $end
$var wire 1 F SW[0]~input_o $end
$var wire 1 G comb_8|Q~q $end
$var wire 1 H comb_7|Q~q $end
$var wire 1 I comb_6|Q~combout $end
$upscope $end
$upscope $end
$enddefinitions $end
#0
$dumpvars
x!
x"
x#
x$
bx00 %
x&
00
0/
x.
0-
0,
0+
0*
0)
0(
0'
01
12
x3
14
15
16
x7
x8
x9
x:
x;
x<
x=
x>
x?
x@
xA
xB
0C
0D
0E
0F
0G
0H
xI
$end
#40000
bx01 %
1F
#50000
bx11 %
1D
1E
1I
1.
1H
1/
#60000
bx10 %
0F
0I
0.
#70000
bx11 %
1F
1I
1.
#90000
bx10 %
0F
0I
0.
#100000
bx00 %
bx01 %
1F
0D
0E
1G
10
#110000
bx00 %
0F
#120000
bx01 %
1F
#130000
bx00 %
0F
#150000
bx10 %
bx11 %
1F
1D
1E
1I
1.
#160000
bx10 %
0F
0I
0.
#170000
bx11 %
1F
1I
1.
#200000
bx01 %
0D
0E
#210000
bx00 %
0F
